<?xml version="1.0" encoding="utf-8"?>
<!-- Generator: Adobe Illustrator 16.0.0, SVG Export Plug-In . SVG Version: 6.00 Build 0)  -->
<!DOCTYPE svg PUBLIC "-//W3C//DTD SVG 1.1//EN" "http://www.w3.org/Graphics/SVG/1.1/DTD/svg11.dtd">
<svg version="1.1" id="Layer_1" xmlns="http://www.w3.org/2000/svg" xmlns:xlink="http://www.w3.org/1999/xlink" x="0px" y="0px"
	 width="93.333px" height="97.667px" viewBox="0 0 93.333 97.667" enable-background="new 0 0 93.333 97.667" xml:space="preserve">
<path fill="#2B3A47" d="M6.854,77.258c-0.207,0-0.417-0.126-0.6-0.313l34.834-25.14l3.666,2.646
	c0.087,0.063,0.188,0.089,0.279,0.142c0.09,0.051,0.174,0.094,0.268,0.135c0.371,0.162,0.756,0.271,1.146,0.271
	c0.002,0,0.003,0,0.004,0c0.002,0,0.003,0,0.004,0c0.391,0,0.776-0.109,1.147-0.271c0.094-0.041,0.178-0.084,0.268-0.135
	c0.091-0.053,0.192-0.078,0.279-0.141l3.664-2.646l34.836,25.139c-0.183,0.187-0.393,0.313-0.6,0.313H6.854z M5.807,70.108V26.343
	l30.32,21.883L5.807,70.108z M86.05,19.193c0.207,0,0.417,0.125,0.6,0.312L46.451,48.517L6.254,19.505
	c0.183-0.187,0.393-0.312,0.6-0.312H86.05z M56.774,48.227l30.322-21.884v43.766L56.774,48.227z M86.05,13.387H6.854
	C3.073,13.387,0,16.653,0,20.667v55.116c0,4.015,3.073,7.28,6.854,7.28H86.05c3.78,0,6.854-3.266,6.854-7.28V20.667
	C92.903,16.653,89.83,13.387,86.05,13.387z"/>
<path fill="#F05023" d="M3,95v-2c0-0.265,0.051-0.521,0.152-0.766s0.246-0.461,0.434-0.648s0.404-0.332,0.648-0.434
	C4.479,91.051,4.735,91,5,91h83c0.266,0,0.521,0.051,0.766,0.152s0.461,0.246,0.648,0.434s0.332,0.403,0.434,0.648S90,92.735,90,93
	v2c0,0.265-0.051,0.521-0.152,0.765c-0.102,0.246-0.246,0.462-0.434,0.649s-0.403,0.332-0.648,0.434S88.266,97,88,97H5
	c-0.265,0-0.521-0.051-0.766-0.152c-0.245-0.102-0.461-0.246-0.648-0.434s-0.332-0.403-0.434-0.649C3.051,95.521,3,95.265,3,95z"/>
<path fill="#20285C" d="M3,5V3c0-0.265,0.051-0.521,0.152-0.766C3.254,1.99,3.398,1.773,3.586,1.586S3.99,1.254,4.234,1.152
	C4.479,1.051,4.735,1,5,1h83c0.266,0,0.521,0.051,0.766,0.152s0.461,0.246,0.648,0.434s0.332,0.404,0.434,0.648
	C89.949,2.479,90,2.735,90,3v2c0,0.265-0.051,0.521-0.152,0.766c-0.102,0.245-0.246,0.461-0.434,0.648s-0.403,0.332-0.648,0.434
	S88.266,7,88,7H5C4.735,7,4.479,6.949,4.234,6.848C3.99,6.746,3.773,6.602,3.586,6.414S3.254,6.01,3.152,5.766
	C3.051,5.521,3,5.265,3,5z"/>
</svg>
