<?xml version="1.0" encoding="utf-8"?>
<!-- Generator: Adobe Illustrator 24.1.3, SVG Export Plug-In . SVG Version: 6.00 Build 0)  -->
<svg version="1.1" id="Layer_1" xmlns="http://www.w3.org/2000/svg" xmlns:xlink="http://www.w3.org/1999/xlink" x="0px" y="0px"
	 viewBox="0 0 88.6 90.4" style="enable-background:new 0 0 88.6 90.4;" xml:space="preserve">
<path style="fill:#FFFFFF;" d="M60.9,70.9l-1.2,1.2l-9.4-9.4l1.2-1.2c0.7-0.7,1.7-0.7,2.4,0l7.1,7.1C61.6,69.2,61.6,70.2,60.9,70.9z
	 M37.5,73.5L15.4,51.3c-5.4-5.4-5.7-14-0.9-19.8l9.4,9.4c-2.5,2.8-2.4,7.1,0.3,9.8l14,14c0,0,0,0,0,0c2.7,2.7,6.9,2.8,9.8,0.3
	l9.4,9.4C51.6,79.2,43,78.9,37.5,73.5z M18,28c0.7-0.6,1.7-0.6,2.4,0l7.1,7.1c0.7,0.7,0.7,1.7,0,2.4l-1.2,1.2l-9.4-9.4L18,28z
	 M63.3,66.2l-7.1-7.1c-2-2-5.1-2-7.1,0l-3.2,3.2c-1.5,1.5-3.9,1.5-5.4,0l-14-14c-1.5-1.5-1.5-3.9,0-5.4c0.5-0.5,2-2,3.2-3.2
	c1.9-1.9,2-5.1,0-7.1l-7.1-7.1c-2-2-5.1-2-7.1,0c-1.5,1.4-1.9,1.9-2.6,2.6c-7,7-7,18.5,0,25.5l22.1,22.1c7.1,7.1,18.5,7.1,25.5,0
	l2.6-2.6C65.3,71.3,65.3,68.1,63.3,66.2z"/>
<path style="fill:#F05023;" d="M61.9,50.3c-0.8,0-1.5-0.7-1.5-1.5c0-18.2-18.3-19-19.1-19.1c-0.8,0-1.5-0.7-1.5-1.6
	c0-0.8,0.8-1.5,1.6-1.5c0.2,0,22.1,0.9,22.1,22.1C63.4,49.6,62.7,50.3,61.9,50.3z"/>
<path style="fill:#F05023;" d="M79.3,50.3c-0.8,0-1.5-0.7-1.5-1.5c0-34.8-35-36.4-36.5-36.5c-0.8,0-1.5-0.7-1.5-1.6
	c0-0.8,0.7-1.5,1.6-1.5c0.4,0,39.5,1.7,39.5,39.5C80.8,49.6,80.1,50.3,79.3,50.3z"/>
</svg>
